…
``` r
augment(lm(fmla_pred_full_imp_date_no_trends_geopol_from_1927, data = min_by_year), newdata =  new_data) %>% 
  dplyr::select(type_col, YEAR, .fitted) %>% 
  mutate(type_col = recode_factor(type_col, "1" = "counterfactual", "2" = "actual")) %>% 
  tidyr::spread(key = "type_col", value = ".fitted") %>% 
  mutate(count_synth = exp(counterfactual) - 1,
         count_treat = exp(actual) - 1,
         effect_count = round(count_treat- count_synth),
         effect_log = actual - counterfactual,
         effect_pct_change_naive = 100 * (exp(effect_log) - 1),
         effect_count_based_on_pct = arrests_in_year() * (effect_pct_change_naive/100),
         effect_count_based_on_pct_rounded = round(effect_count_based_on_pct))
```

    ## # A tibble: 40 x 10
    ##     YEAR counterfactual actual count_synth count_treat effect_count
    ##    <int>          <dbl>  <dbl>       <dbl>       <dbl>        <dbl>
    ##  1  1921           5.03   5.03       151.        151.             0
    ##  2  1922           3.67   3.67        38.3        38.3            0
    ##  3  1923           3.38   3.38        28.3        28.3            0
    ##  4  1924           3.32   3.32        26.6        26.6            0
    ##  5  1925           3.63   3.63        36.6        36.6            0
    ##  6  1926           3.93   3.93        50.2        50.2            0
    ##  7  1927           4.83   4.98       124.        145.            21
    ##  8  1928           5.34   5.42       208.        226.            18
    ##  9  1929           6.78   7.44       875.       1699.           824
    ## 10  1930           8.19   8.92      3603.       7497.          3894
    ## # ... with 30 more rows, and 4 more variables: effect_log <dbl>,
    ## #   effect_pct_change_naive <dbl>, effect_count_based_on_pct <dbl>,
    ## #   effect_count_based_on_pct_rounded <dbl>
…
